%YAML 1.1
%TAG !u! tag:unity3d.com,2011:
--- !u!1045 &1
EditorBuildSettings:
  m_ObjectHideFlags: 0
  serializedVersion: 2
  m_Scenes:
  - enabled: 1
    path: Assets/Scenes/NetworkLobby.unity
    guid: 3c0d76c55eed6214f9d3b070caede5d3
  - enabled: 0
    path: Assets/Scenes/Level1.unity
    guid: 4e8530be03e510a44a3b7b2293b56a64
  - enabled: 1
    path: Assets/Scenes/Level3.unity
    guid: e9e532766c43f8e4fbc3d50f92bd1ca2
