%YAML 1.1
%TAG !u! tag:unity3d.com,2011:
--- !u!114 &11400000
MonoBehaviour:
  m_ObjectHideFlags: 0
  m_PrefabParentObject: {fileID: 0}
  m_PrefabInternal: {fileID: 0}
  m_GameObject: {fileID: 0}
  m_Enabled: 1
  m_EditorHideFlags: 0
  m_Script: {fileID: 11500000, guid: 96a55e9042e120d47ad1d96ddc41d04c, type: 3}
  m_Name: RobballTestWave
  m_EditorClassIdentifier: 
  WaveTime: 180
  groups:
  - spawnTime: 1
    enemies:
    - {fileID: 1265242015934330, guid: 73e9cdc0b255d7b48af9e50ce7b8c443, type: 2}
